{
  "info": {
    "_postman_id": "d903d411-271a-4360-be26-c429e6f2b09e",
    "name": "Fiona",
    "description": "Quby's new multi-tenant microservices platform.",
    "schema": "https://schema.getpostman.com/json/collection/v2.0.0/collection.json"
  },
  "item": [
    {
      "name": "Movie",
      "item": [
        {
          "name": "Find movie by name",
          "_postman_id": "d8092af2-c41b-4ff9-9650-8c3ce73c2058",
          "protocolProfileBehavior": {
            "disableBodyPruning": true
          },
          "request": {
            "method": "GET",
            "header": [],
            "url": {
              "raw": "{{host}}/movie/movies?q=brianhtrh",
              "host": [
                "{{host}}"
              ],
              "path": [
                "movie",
                "movies"
              ],
              "query": [
                {
                  "key": "q",
                  "value": "brianhtrh"
                }
              ]
            }
          },
          "response": [
            {
              "id": "1c67b54f-c043-440f-b6bb-20735c858d0e",
              "name": "Find movie by name",
              "originalRequest": {
                "method": "GET",
                "header": [],
                "url": {
                  "raw": "{{host}}/movie/movies?q=brian",
                  "host": [
                    "{{host}}"
                  ],
                  "path": [
                    "movie",
                    "movies"
                  ],
                  "query": [
                    {
                      "key": "q",
                      "value": "brian"
                    }
                  ]
                }
              },
              "status": "OK",
              "code": 200,
              "_postman_previewlanguage": "json",
              "header": [],
              "cookie": [],
              "responseTime": null,
              "body": "2006\u00132007"
            }
          ]
        }
      ],
      "_postman_id": "7f368d57-ffb3-4669-9f9f-d87b39373581",
      "description": "Movie service\n"
    }
  ]
}