{
  "info": {
    "_postman_id": "21fd2f08-a3d3-4879-a71b-ef52afb21f11",
    "name": "test-collection",
    "schema": "https://schema.getpostman.com/json/collection/v2.0.0/collection.json"
  },
  "item": [
    {
      "name": "New Request",
      "event": [
        {
          "listen": "test",
          "script": {
            "id": "e258cdd6-81f1-49b2-baa7-07b92ff4b335",
            "exec": [
              "pm.test(\"Status code is 200\", function () {",
              "    pm.response.to.have.status(200);",
              "});"
            ],
            "type": "text/javascript"
          }
        }
      ],
      "id": "4e1e05f3-6ebb-4b2a-afbc-c79db03a20ce",
      "protocolProfileBehavior": {
        "disableBodyPruning": true
      },
      "request": {
        "method": "GET",
        "header": [],
        "body": {
          "mode": "raw",
          "raw": "{\"fefeff\":\"日本\"}",
          "options": {
            "raw": {
              "language": "json"
            }
          }
        },
        "url": "www.postman.com"
      },
      "response": []
    }
  ]
}